{"total": 5440886, "offset": 0, "next": 30, "data": [{"paperId": "46200b99c40e8586c8a0f588488ab6414119fb28", "url": "https://www.semanticscholar.org/paper/46200b99c40e8586c8a0f588488ab6414119fb28", "title": "TensorFlow: A system for large-scale machine learning", "venue": "OSDI", "year": 2016, "authors": [{"authorId": "2057642721", "name": "Mart\u00edn Abadi"}, {"authorId": "144758007", "name": "P. Barham"}, {"authorId": "2108406634", "name": "Jianmin Chen"}, {"authorId": "2545358", "name": "Z. Chen"}, {"authorId": "36347083", "name": "Andy Davis"}, {"authorId": "49959210", "name": "J. Dean"}, {"authorId": "145139947", "name": "M. Devin"}, {"authorId": "1780892", "name": "S. Ghemawat"}, {"authorId": "2060655766", "name": "Geoffrey Irving"}, {"authorId": "2090818", "name": "M. Isard"}, {"authorId": "1942300", "name": "M. Kudlur"}, {"authorId": "3369421", "name": "Josh Levenberg"}, {"authorId": "3089272", "name": "Rajat Monga"}, {"authorId": "144375552", "name": "Sherry Moore"}, {"authorId": "20154699", "name": "D. Murray"}, {"authorId": "32163737", "name": "Benoit Steiner"}, {"authorId": "2080690", "name": "P. Tucker"}, {"authorId": "2053781980", "name": "Vijay Vasudevan"}, {"authorId": "47941411", "name": "Pete Warden"}, {"authorId": "35078078", "name": "Martin Wicke"}, {"authorId": "2117163698", "name": "Yuan Yu"}, {"authorId": "2108113522", "name": "Xiaoqian Zhang"}]}, {"paperId": "9c9d7247f8c51ec5a02b0d911d1d7b9e8160495d", "url": "https://www.semanticscholar.org/paper/9c9d7247f8c51ec5a02b0d911d1d7b9e8160495d", "title": "TensorFlow: Large-Scale Machine Learning on Heterogeneous Distributed Systems", "venue": "ArXiv", "year": 2016, "authors": [{"authorId": "2057642721", "name": "Mart\u00edn Abadi"}, {"authorId": "2078528337", "name": "Ashish Agarwal"}, {"authorId": "144758007", "name": "P. Barham"}, {"authorId": "2445241", "name": "E. Brevdo"}, {"authorId": "2545358", "name": "Z. Chen"}, {"authorId": "48738717", "name": "C. Citro"}, {"authorId": "32131713", "name": "G. Corrado"}, {"authorId": "36347083", "name": "Andy Davis"}, {"authorId": "49959210", "name": "J. Dean"}, {"authorId": "145139947", "name": "M. Devin"}, {"authorId": "1780892", "name": "S. Ghemawat"}, {"authorId": "153440022", "name": "I. Goodfellow"}, {"authorId": "2064102917", "name": "Andrew Harp"}, {"authorId": "2060655766", "name": "Geoffrey Irving"}, {"authorId": "2090818", "name": "M. Isard"}, {"authorId": "39978391", "name": "Y. Jia"}, {"authorId": "1944541", "name": "R. J\u00f3zefowicz"}, {"authorId": "2059819603", "name": "Lukasz Kaiser"}, {"authorId": "1942300", "name": "M. Kudlur"}, {"authorId": "3369421", "name": "Josh Levenberg"}, {"authorId": "30415265", "name": "Dandelion Man\u00e9"}, {"authorId": "3089272", "name": "Rajat Monga"}, {"authorId": "144375552", "name": "Sherry Moore"}, {"authorId": "20154699", "name": "D. Murray"}, {"authorId": "37232298", "name": "Christopher Olah"}, {"authorId": "144927151", "name": "M. Schuster"}, {"authorId": "1789737", "name": "Jonathon Shlens"}, {"authorId": "32163737", "name": "Benoit Steiner"}, {"authorId": "1701686", "name": "Ilya Sutskever"}, {"authorId": "35210462", "name": "Kunal Talwar"}, {"authorId": "2080690", "name": "P. Tucker"}, {"authorId": "2657155", "name": "Vincent Vanhoucke"}, {"authorId": "2053781980", "name": "Vijay Vasudevan"}, {"authorId": "1765169", "name": "F. Vi\u00e9gas"}, {"authorId": "1689108", "name": "Oriol Vinyals"}, {"authorId": "47941411", "name": "Pete Warden"}, {"authorId": "145233583", "name": "M. Wattenberg"}, {"authorId": "35078078", "name": "Martin Wicke"}, {"authorId": "2117163698", "name": "Yuan Yu"}, {"authorId": "2777763", "name": "X. Zheng"}]}, {"paperId": "b42b1bfdc262bf99e9484e2e9df94df216b96374", "url": "https://www.semanticscholar.org/paper/b42b1bfdc262bf99e9484e2e9df94df216b96374", "title": "Data Mining Practical Machine Learning Tools and Techniques", "venue": "", "year": 2014, "authors": [{"authorId": "71619391", "name": "\u0e2d\u0e19\u0e34\u0e23\u0e38\u0e18 \u0e2a\u0e37\u0e1a\u0e2a\u0e34\u0e07\u0e2b\u0e4c"}]}, {"paperId": "25badc676197a70aaf9911865eb03469e402ba57", "url": "https://www.semanticscholar.org/paper/25badc676197a70aaf9911865eb03469e402ba57", "title": "Machine learning - a probabilistic perspective", "venue": "Adaptive computation and machine learning series", "year": 2012, "authors": [{"authorId": "2056417995", "name": "K. Murphy"}]}, {"paperId": "f9c602cc436a9ea2f9e7db48c77d924e09ce3c32", "url": "https://www.semanticscholar.org/paper/f9c602cc436a9ea2f9e7db48c77d924e09ce3c32", "title": "Fashion-MNIST: a Novel Image Dataset for Benchmarking Machine Learning Algorithms", "venue": "ArXiv", "year": 2017, "authors": [{"authorId": "38626041", "name": "Han Xiao"}, {"authorId": "4565995", "name": "Kashif Rasul"}, {"authorId": "2742129", "name": "Roland Vollgraf"}]}, {"paperId": "2e2089ae76fe914706e6fa90081a79c8fe01611e", "url": "https://www.semanticscholar.org/paper/2e2089ae76fe914706e6fa90081a79c8fe01611e", "title": "Practical Bayesian Optimization of Machine Learning Algorithms", "venue": "NIPS", "year": 2012, "authors": [{"authorId": "144108062", "name": "Jasper Snoek"}, {"authorId": "1777528", "name": "H. Larochelle"}, {"authorId": "1722180", "name": "Ryan P. Adams"}]}, {"paperId": "168f28ac3c8c7ea63bf7ed25f2288e8b67e2fe74", "url": "https://www.semanticscholar.org/paper/168f28ac3c8c7ea63bf7ed25f2288e8b67e2fe74", "title": "Scikit-learn: Machine Learning in Python", "venue": "J. Mach. Learn. Res.", "year": 2011, "authors": [{"authorId": "2570016", "name": "Fabian Pedregosa"}, {"authorId": "3025780", "name": "G. Varoquaux"}, {"authorId": "1797840", "name": "A. Gramfort"}, {"authorId": "52200573", "name": "V. Michel"}, {"authorId": "8493461", "name": "B. Thirion"}, {"authorId": "2958756", "name": "O. Grisel"}, {"authorId": "27257992", "name": "Mathieu Blondel"}, {"authorId": "1881041", "name": "Gilles Louppe"}, {"authorId": "2780213", "name": "P. Prettenhofer"}, {"authorId": "2067827437", "name": "Ron Weiss"}, {"authorId": "39571582", "name": "Ron J. Weiss"}, {"authorId": "2081469", "name": "J. Vanderplas"}, {"authorId": "144720379", "name": "Alexandre Passos"}, {"authorId": "3084321", "name": "D. Cournapeau"}, {"authorId": "2423884", "name": "M. Brucher"}, {"authorId": "35243423", "name": "M. Perrot"}, {"authorId": "1710398", "name": "E. Duchesnay"}]}, {"paperId": "f9c990b1b5724e50e5632b94fdb7484ece8a6ce7", "url": "https://www.semanticscholar.org/paper/f9c990b1b5724e50e5632b94fdb7484ece8a6ce7", "title": "Convolutional LSTM Network: A Machine Learning Approach for Precipitation Nowcasting", "venue": "NIPS", "year": 2015, "authors": [{"authorId": "3008587", "name": "Xingjian Shi"}, {"authorId": "2192200", "name": "Zhourong Chen"}, {"authorId": "49528584", "name": "Hao Wang"}, {"authorId": "1739816", "name": "D. Yeung"}, {"authorId": "145771919", "name": "W. Wong"}, {"authorId": "2183294", "name": "W. Woo"}]}, {"paperId": "bc00ff34ec7772080c7039b17f7069a2f7df0889", "url": "https://www.semanticscholar.org/paper/bc00ff34ec7772080c7039b17f7069a2f7df0889", "title": "Stop explaining black box machine learning models for high stakes decisions and use interpretable models instead", "venue": "Nature Machine Intelligence", "year": 2019, "authors": [{"authorId": "48395540", "name": "C. Rudin"}]}, {"paperId": "fa72afa9b2cbc8f0d7b05d52548906610ffbb9c5", "url": "https://www.semanticscholar.org/paper/fa72afa9b2cbc8f0d7b05d52548906610ffbb9c5", "title": "Neural Machine Translation by Jointly Learning to Align and Translate", "venue": "ICLR", "year": 2015, "authors": [{"authorId": "3335364", "name": "Dzmitry Bahdanau"}, {"authorId": "1979489", "name": "Kyunghyun Cho"}, {"authorId": "1751762", "name": "Yoshua Bengio"}]}, {"paperId": "82266f6103bade9005ec555ed06ba20b5210ff22", "url": "https://www.semanticscholar.org/paper/82266f6103bade9005ec555ed06ba20b5210ff22", "title": "Gaussian Processes for Machine Learning", "venue": "Adaptive computation and machine learning", "year": 2009, "authors": [{"authorId": "3472959", "name": "C. Rasmussen"}, {"authorId": "145715698", "name": "Christopher K. I. Williams"}]}, {"paperId": "d21703674ae562bae4a849a75847cdd9ead417df", "url": "https://www.semanticscholar.org/paper/d21703674ae562bae4a849a75847cdd9ead417df", "title": "Optimization Methods for Large-Scale Machine Learning", "venue": "SIAM Rev.", "year": 2018, "authors": [{"authorId": "52184096", "name": "L. Bottou"}, {"authorId": "2198436", "name": "Frank E. Curtis"}, {"authorId": "2784955", "name": "J. Nocedal"}]}, {"paperId": "0b544dfe355a5070b60986319a3f51fb45d1348e", "url": "https://www.semanticscholar.org/paper/0b544dfe355a5070b60986319a3f51fb45d1348e", "title": "Learning Phrase Representations using RNN Encoder\u2013Decoder for Statistical Machine Translation", "venue": "EMNLP", "year": 2014, "authors": [{"authorId": "1979489", "name": "Kyunghyun Cho"}, {"authorId": "3158246", "name": "B. V. Merrienboer"}, {"authorId": "1854385", "name": "\u00c7aglar G\u00fcl\u00e7ehre"}, {"authorId": "3335364", "name": "Dzmitry Bahdanau"}, {"authorId": "2076086", "name": "Fethi Bougares"}, {"authorId": "144518416", "name": "Holger Schwenk"}, {"authorId": "1751762", "name": "Yoshua Bengio"}]}, {"paperId": "53b047e503f4c24602f376a774d653f7ed56c024", "url": "https://www.semanticscholar.org/paper/53b047e503f4c24602f376a774d653f7ed56c024", "title": "Practical Black-Box Attacks against Machine Learning", "venue": "AsiaCCS", "year": 2017, "authors": [{"authorId": "1967156", "name": "Nicolas Papernot"}, {"authorId": "144061974", "name": "P. Mcdaniel"}, {"authorId": "153440022", "name": "I. Goodfellow"}, {"authorId": "1680133", "name": "S. Jha"}, {"authorId": "144643812", "name": "Z. B. Celik"}, {"authorId": "144231976", "name": "A. Swami"}]}, {"paperId": "73f15adaeb9d59cf83e6f556500ab9e54d6487c6", "url": "https://www.semanticscholar.org/paper/73f15adaeb9d59cf83e6f556500ab9e54d6487c6", "title": "An Introduction to Machine Learning", "venue": "Springer International Publishing", "year": 2017, "authors": [{"authorId": "1713687", "name": "M. Kub\u00e1t"}]}, {"paperId": "807c1f19047f96083e13614f7ce20f2ac98c239a", "url": "https://www.semanticscholar.org/paper/807c1f19047f96083e13614f7ce20f2ac98c239a", "title": "C4.5: Programs for Machine Learning", "venue": "", "year": 1992, "authors": [{"authorId": "145341779", "name": "J. R. Quinlan"}]}, {"paperId": "fbc6562814e08e416e28a268ce7beeaa3d0708c8", "url": "https://www.semanticscholar.org/paper/fbc6562814e08e416e28a268ce7beeaa3d0708c8", "title": "Large-Scale Machine Learning with Stochastic Gradient Descent", "venue": "COMPSTAT", "year": 2010, "authors": [{"authorId": "52184096", "name": "L. Bottou"}]}, {"paperId": "3bb5a439a0d610a7eac68f73068cdd278b8c9775", "url": "https://www.semanticscholar.org/paper/3bb5a439a0d610a7eac68f73068cdd278b8c9775", "title": "Pattern Recognition and Machine Learning", "venue": "Technometrics", "year": 2007, "authors": [{"authorId": "1764325", "name": "R. Neal"}]}, {"paperId": "aab43c9c33af00b718cf2ae374b861d49862a563", "url": "https://www.semanticscholar.org/paper/aab43c9c33af00b718cf2ae374b861d49862a563", "title": "Machine learning", "venue": "CSUR", "year": 1996, "authors": [{"authorId": "144299726", "name": "Thomas G. Dietterich"}]}, {"paperId": "776b5c7b2966fd700980361aa32ee573edb70bf3", "url": "https://www.semanticscholar.org/paper/776b5c7b2966fd700980361aa32ee573edb70bf3", "title": "Quantum Machine Learning", "venue": "", "year": 2020, "authors": [{"authorId": "25106284", "name": "Ievgeniia Oshurko"}]}, {"paperId": "2e62d1345b340d5fda3b092c460264b9543bc4b5", "url": "https://www.semanticscholar.org/paper/2e62d1345b340d5fda3b092c460264b9543bc4b5", "title": "Genetic Algorithms in Search Optimization and Machine Learning", "venue": "", "year": 1988, "authors": [{"authorId": "1715339", "name": "D. Goldberg"}]}, {"paperId": "3df952d4a724655f7520ff95d4b2cef90fff0cae", "url": "https://www.semanticscholar.org/paper/3df952d4a724655f7520ff95d4b2cef90fff0cae", "title": "Techniques for interpretable machine learning", "venue": "Commun. ACM", "year": 2020, "authors": [{"authorId": "3432460", "name": "Mengnan Du"}, {"authorId": "47717322", "name": "Ninghao Liu"}, {"authorId": "48539382", "name": "Xia Hu"}]}, {"paperId": "7ae2783a9196fb4bc2a610ae812d19722daddce5", "url": "https://www.semanticscholar.org/paper/7ae2783a9196fb4bc2a610ae812d19722daddce5", "title": "Applications of machine learning to machine fault diagnosis: A review and roadmap", "venue": "", "year": 2020, "authors": [{"authorId": "1829456", "name": "Y. Lei"}, {"authorId": "2118581438", "name": "Bin Yang"}, {"authorId": "2110312239", "name": "Xinwei Jiang"}, {"authorId": "46691607", "name": "Feng Jia"}, {"authorId": "49088361", "name": "Naipeng Li"}, {"authorId": "145720325", "name": "A. Nandi"}]}, {"paperId": "241d9b16e09f77368797c44493eafbadd675da5b", "url": "https://www.semanticscholar.org/paper/241d9b16e09f77368797c44493eafbadd675da5b", "title": "Fairness in Machine Learning", "venue": "ArXiv", "year": 2020, "authors": [{"authorId": "1682762", "name": "L. Oneto"}, {"authorId": "48880818", "name": "S. Chiappa"}]}, {"paperId": "1b0f4bd3872bb590d457990ac2b26b29f770fc44", "url": "https://www.semanticscholar.org/paper/1b0f4bd3872bb590d457990ac2b26b29f770fc44", "title": "Explainable machine learning in deployment", "venue": "FAT*", "year": 2020, "authors": [{"authorId": "32326200", "name": "Umang Bhatt"}, {"authorId": "4990825", "name": "Alice Xiang"}, {"authorId": "2034354321", "name": "Shubham Sharma"}, {"authorId": "145689461", "name": "Adrian Weller"}, {"authorId": "40511120", "name": "Ankur Taly"}, {"authorId": "12488214", "name": "Yunhan Jia"}, {"authorId": "34724702", "name": "Joydeep Ghosh"}, {"authorId": "1718933", "name": "R. Puri"}, {"authorId": "51283515", "name": "J. Moura"}, {"authorId": "2654106", "name": "P. Eckersley"}]}, {"paperId": "ce615ae61d67db8537e981a0a08da7f0f2ff1cee", "url": "https://www.semanticscholar.org/paper/ce615ae61d67db8537e981a0a08da7f0f2ff1cee", "title": "Understanding Machine Learning - From Theory to Algorithms", "venue": "", "year": 2014, "authors": [{"authorId": "1389955537", "name": "S. Shalev-Shwartz"}, {"authorId": "1401829700", "name": "Shai Ben-David"}]}, {"paperId": "6bc4b1376ec2812b6d752c4f6bc8d8fd0512db91", "url": "https://www.semanticscholar.org/paper/6bc4b1376ec2812b6d752c4f6bc8d8fd0512db91", "title": "Multimodal Machine Learning: A Survey and Taxonomy", "venue": "IEEE Transactions on Pattern Analysis and Machine Intelligence", "year": 2019, "authors": [{"authorId": "1756344", "name": "T. Baltru\u0161aitis"}, {"authorId": "118242121", "name": "Chaitanya Ahuja"}, {"authorId": "49933077", "name": "Louis-Philippe Morency"}]}, {"paperId": "e2a85a6766b982ff7c8980e57ca6342d22493827", "url": "https://www.semanticscholar.org/paper/e2a85a6766b982ff7c8980e57ca6342d22493827", "title": "Adversarial Machine Learning at Scale", "venue": "ICLR", "year": 2017, "authors": [{"authorId": "145714153", "name": "A. Kurakin"}, {"authorId": "153440022", "name": "I. Goodfellow"}, {"authorId": "1751569", "name": "Samy Bengio"}]}, {"paperId": "f86f1748d1b6d22870f4347fd5d65314ba800583", "url": "https://www.semanticscholar.org/paper/f86f1748d1b6d22870f4347fd5d65314ba800583", "title": "Reconciling modern machine-learning practice and the classical bias\u2013variance trade-off", "venue": "Proceedings of the National Academy of Sciences", "year": 2019, "authors": [{"authorId": "145520115", "name": "Mikhail Belkin"}, {"authorId": "143724861", "name": "Daniel J. Hsu"}, {"authorId": "143791100", "name": "Siyuan Ma"}, {"authorId": "151213231", "name": "Soumik Mandal"}]}, {"paperId": "b0c34618ffd1154f35863e2ce7250ac6b6f2c424", "url": "https://www.semanticscholar.org/paper/b0c34618ffd1154f35863e2ce7250ac6b6f2c424", "title": "Interpretable Machine Learning", "venue": "", "year": 2019, "authors": [{"authorId": "144641487", "name": "Tyler Martin"}]}]}