{"total": 22702116, "offset": 0, "next": 30, "data": [{"paperId": "d45eaee8b2e047306329e5dbfc954e6dd318ca1e", "url": "https://www.semanticscholar.org/paper/d45eaee8b2e047306329e5dbfc954e6dd318ca1e", "title": "ROS: an open-source Robot Operating System", "venue": "ICRA 2009", "year": 2009, "authors": [{"authorId": "39100828", "name": "M. Quigley"}]}, {"paperId": "7e00418545f3a8839eecd906dba167d85bd6e509", "url": "https://www.semanticscholar.org/paper/7e00418545f3a8839eecd906dba167d85bd6e509", "title": "Hyperledger fabric: a distributed operating system for permissioned blockchains", "venue": "EuroSys", "year": 2018, "authors": [{"authorId": "2153304", "name": "Elli Androulaki"}, {"authorId": "37940861", "name": "Artem Barger"}, {"authorId": "145490677", "name": "V. Bortnikov"}, {"authorId": "3142068", "name": "C. Cachin"}, {"authorId": "1869645", "name": "K. Christidis"}, {"authorId": "7703741", "name": "A. D. Caro"}, {"authorId": "1398538823", "name": "David Enyeart"}, {"authorId": "145315230", "name": "Christopher Ferris"}, {"authorId": "1952597", "name": "Gennady Laventman"}, {"authorId": "39622899", "name": "Yacov Manevich"}, {"authorId": "2075696319", "name": "S. Muralidharan"}, {"authorId": "145379175", "name": "Chet Murthy"}, {"authorId": "46277200", "name": "Binh Nguyen"}, {"authorId": "2066035153", "name": "Manish Sethi"}, {"authorId": "1399919938", "name": "Gari Singh"}, {"authorId": "2110164926", "name": "Keith Smith"}, {"authorId": "1715519", "name": "A. Sorniotti"}, {"authorId": "35347465", "name": "C. Stathakopoulou"}, {"authorId": "1796625", "name": "M. Vukolic"}, {"authorId": "1398539143", "name": "S. Cocco"}, {"authorId": "1398538814", "name": "Jason Yellick"}]}, {"paperId": "fd5ab744c4d388c34c283514045cfa9e6a5c3043", "url": "https://www.semanticscholar.org/paper/fd5ab744c4d388c34c283514045cfa9e6a5c3043", "title": "Robot Operating System (ROS)", "venue": "", "year": 2020, "authors": [{"authorId": "2082238171", "name": "Dan Gazebo Sebagai"}, {"authorId": "2099121234", "name": "Media Pembelajaran"}, {"authorId": "2098038112", "name": "Robot Interaktif"}, {"authorId": "118206081", "name": "A. Jalil"}]}, {"paperId": "60fe119972cf4f59503d39785129c30eef38e11a", "url": "https://www.semanticscholar.org/paper/60fe119972cf4f59503d39785129c30eef38e11a", "title": "Robot Operating System (ROS)", "venue": "Studies in Computational Intelligence", "year": 2019, "authors": [{"authorId": "1714415", "name": "A. Koubaa"}]}, {"paperId": "4a3642deb3dad3feac4622db8a4958ffa1bcd4a9", "url": "https://www.semanticscholar.org/paper/4a3642deb3dad3feac4622db8a4958ffa1bcd4a9", "title": "Operating System", "venue": "", "year": 2020, "authors": [{"authorId": "2098858501", "name": "M. Rafi"}, {"authorId": "2037674007", "name": "S. VikramSindhu"}]}, {"paperId": "b8fd1b9c598ed4430f4091ddf537b7519ccfe803", "url": "https://www.semanticscholar.org/paper/b8fd1b9c598ed4430f4091ddf537b7519ccfe803", "title": "RIOT: An Open Source Operating System for Low-End Embedded Devices in the IoT", "venue": "IEEE Internet of Things Journal", "year": 2018, "authors": [{"authorId": "3346339", "name": "E. Baccelli"}, {"authorId": "25232521", "name": "Cenk G\u00fcndogan"}, {"authorId": "2258932", "name": "O. Hahm"}, {"authorId": "3377954", "name": "Peter Kietzmann"}, {"authorId": "144871476", "name": "Martine S. Lenders"}, {"authorId": "145803940", "name": "Hauke Petersen"}, {"authorId": "2082952", "name": "K. Schleiser"}, {"authorId": "145827833", "name": "T. Schmidt"}, {"authorId": "9381507", "name": "Matthias W\u00e4hlisch"}]}, {"paperId": "8f0ee1195ae7e74101505222498a0a882b96f53f", "url": "https://www.semanticscholar.org/paper/8f0ee1195ae7e74101505222498a0a882b96f53f", "title": "Contiki - a lightweight and flexible operating system for tiny networked sensors", "venue": "29th Annual IEEE International Conference on Local Computer Networks", "year": 2004, "authors": [{"authorId": "1773624", "name": "A. Dunkels"}, {"authorId": "2192012", "name": "B. Gr\u00f6nvall"}, {"authorId": "145470665", "name": "T. Voigt"}]}, {"paperId": "bf85f1abb7209356d18f2e71a56cd64bb787fc0c", "url": "https://www.semanticscholar.org/paper/bf85f1abb7209356d18f2e71a56cd64bb787fc0c", "title": "Security for the Robot Operating System", "venue": "Robotics Auton. Syst.", "year": 2017, "authors": [{"authorId": "1748218", "name": "Bernhard Dieber"}, {"authorId": "16971721", "name": "Benjamin Breiling"}, {"authorId": "29814216", "name": "Sebastian Taurer"}, {"authorId": "1891742", "name": "Severin Kacianka"}, {"authorId": "1717963", "name": "S. Rass"}, {"authorId": "1693600", "name": "P. Schartner"}]}, {"paperId": "0f00717b72b8c8562926a5d552951583c9d89027", "url": "https://www.semanticscholar.org/paper/0f00717b72b8c8562926a5d552951583c9d89027", "title": "Robot Operating System (ROS): The Complete Reference (Volume 1)", "venue": "", "year": 2016, "authors": [{"authorId": "1714415", "name": "A. Koubaa"}]}, {"paperId": "ca6ce423ca1034dec71261d7b4a4524ac66b1a2f", "url": "https://www.semanticscholar.org/paper/ca6ce423ca1034dec71261d7b4a4524ac66b1a2f", "title": "ROSPlan: Planning in the Robot Operating System", "venue": "ICAPS", "year": 2015, "authors": [{"authorId": "2804910", "name": "Michael Cashmore"}, {"authorId": "145130479", "name": "M. Fox"}, {"authorId": "144954846", "name": "D. Long"}, {"authorId": "1738142", "name": "D. Magazzeni"}, {"authorId": "2080507436", "name": "Bram Ridder"}, {"authorId": "34250799", "name": "A. Carrera"}, {"authorId": "73358119", "name": "N. Palomeras"}, {"authorId": "1739803", "name": "N. Hurt\u00f3s"}, {"authorId": "145278148", "name": "M. Carreras"}]}, {"paperId": "567f633bc74ac40364a1961fad1b7fe80605b815", "url": "https://www.semanticscholar.org/paper/567f633bc74ac40364a1961fad1b7fe80605b815", "title": "IX: A Protected Dataplane Operating System for High Throughput and Low Latency", "venue": "OSDI", "year": 2014, "authors": [{"authorId": "6427412", "name": "A. Belay"}, {"authorId": "1926783", "name": "G. Prekas"}, {"authorId": "1971184", "name": "Ana Klimovic"}, {"authorId": "32657901", "name": "Samuel Grossman"}, {"authorId": "1700331", "name": "C. Kozyrakis"}, {"authorId": "1678618", "name": "E. Bugnion"}]}, {"paperId": "105c200a6b632fcd9cc2e7cadbfd58760825cbfa", "url": "https://www.semanticscholar.org/paper/105c200a6b632fcd9cc2e7cadbfd58760825cbfa", "title": "Programming Robots with ROS: A Practical Introduction to the Robot Operating System", "venue": "", "year": 2015, "authors": [{"authorId": "39100828", "name": "M. Quigley"}, {"authorId": "3087910", "name": "Brian P. Gerkey"}, {"authorId": "1804336", "name": "W. Smart"}]}, {"paperId": "fc45f0a3eb3205e01e2590f84aacc53021833d86", "url": "https://www.semanticscholar.org/paper/fc45f0a3eb3205e01e2590f84aacc53021833d86", "title": "Nested Kernel: An Operating System Architecture for Intra-Kernel Privilege Separation", "venue": "ASPLOS 2015", "year": 2015, "authors": [{"authorId": "1795094", "name": "Nathan Dautenhahn"}, {"authorId": "2583812", "name": "T. Kasampalis"}, {"authorId": "145911995", "name": "Will Dietz"}, {"authorId": "144618669", "name": "J. Criswell"}, {"authorId": "1720525", "name": "V. Adve"}]}, {"paperId": "bf0f6bc65d506e8a71d6d2fea570d7dcdbc1d5b0", "url": "https://www.semanticscholar.org/paper/bf0f6bc65d506e8a71d6d2fea570d7dcdbc1d5b0", "title": "Rosemary: A Robust, Secure, and High-performance Network Operating System", "venue": "CCS", "year": 2014, "authors": [{"authorId": "2083381", "name": "Seungwon Shin"}, {"authorId": "1732294", "name": "YongJoo Song"}, {"authorId": "2407948", "name": "Taekyung Lee"}, {"authorId": "35505557", "name": "S. Lee"}, {"authorId": "1958258", "name": "Jaewoong Chung"}, {"authorId": "1800634", "name": "Phillip A. Porras"}, {"authorId": "1780068", "name": "V. Yegneswaran"}, {"authorId": "34979908", "name": "Jiseong Noh"}, {"authorId": "1826555", "name": "Brent Byunghoon Kang"}]}, {"paperId": "a9dfa06d4ab3a32dcf00e3cb3f264e11a44aa116", "url": "https://www.semanticscholar.org/paper/a9dfa06d4ab3a32dcf00e3cb3f264e11a44aa116", "title": "A Generalized Extended Kalman Filter Implementation for the Robot Operating System", "venue": "IAS", "year": 2014, "authors": [{"authorId": "2067769148", "name": "Thomas Moore"}, {"authorId": "2285142", "name": "Daniel W. Stouch"}]}, {"paperId": "a4c5096e7afd8fb59136e292a3ce3405c127a7a4", "url": "https://www.semanticscholar.org/paper/a4c5096e7afd8fb59136e292a3ce3405c127a7a4", "title": "TinyOS: An Operating System for Wireless Sensor Networks", "venue": "", "year": 2015, "authors": [{"authorId": "70578101", "name": "Praveen Budhwar"}]}, {"paperId": "8b6857aa7c60ed775db600f51717fa83426f1176", "url": "https://www.semanticscholar.org/paper/8b6857aa7c60ed775db600f51717fa83426f1176", "title": "Networked: the new social operating system", "venue": "", "year": 2015, "authors": [{"authorId": "2068333660", "name": "Miriam Souto Maior Barros"}]}, {"paperId": "999fb6456f70c8ff1256234b4f99082d3cf6db8b", "url": "https://www.semanticscholar.org/paper/999fb6456f70c8ff1256234b4f99082d3cf6db8b", "title": "OSv - Optimizing the Operating System for Virtual Machines", "venue": "USENIX Annual Technical Conference", "year": 2014, "authors": [{"authorId": "2559152", "name": "A. Kivity"}, {"authorId": "1401756898", "name": "D. Laor"}, {"authorId": "2064826398", "name": "Glauber Costa"}, {"authorId": "8046941", "name": "Pekka Enberg"}, {"authorId": "28275426", "name": "N. Har'El"}, {"authorId": "52046420", "name": "Don Marti"}, {"authorId": "1403746848", "name": "Vlad Zolotarov"}]}, {"paperId": "af47bba2760ffa1a17e45bccdb3f516f2aa22170", "url": "https://www.semanticscholar.org/paper/af47bba2760ffa1a17e45bccdb3f516f2aa22170", "title": "The Design and Implementation of the FreeBSD Operating System", "venue": "", "year": 2014, "authors": [{"authorId": "143733462", "name": "M. McKusick"}, {"authorId": "1399251783", "name": "George Neville-Neil"}]}, {"paperId": "cb73fdcd47eebd12b74d07baa2cbca2858ec0494", "url": "https://www.semanticscholar.org/paper/cb73fdcd47eebd12b74d07baa2cbca2858ec0494", "title": "ReconOS: An Operating System Approach for Reconfigurable Computing", "venue": "IEEE Micro", "year": 2014, "authors": [{"authorId": "2123676", "name": "Andreas Agne"}, {"authorId": "1769562", "name": "M. Happe"}, {"authorId": "6006576", "name": "A. Keller"}, {"authorId": "1874154", "name": "Enno L\u00fcbbers"}, {"authorId": "144496790", "name": "B. Plattner"}, {"authorId": "1947535", "name": "M. Platzner"}, {"authorId": "1894723", "name": "Christian Plessl"}]}, {"paperId": "de9f48320c2ee2970fa4909635729b0c27b7890f", "url": "https://www.semanticscholar.org/paper/de9f48320c2ee2970fa4909635729b0c27b7890f", "title": "Horizon 2020 and Beyond: On the 5G Operating System for a True Digital Society", "venue": "IEEE Vehicular Technology Magazine", "year": 2015, "authors": [{"authorId": "1705444", "name": "D. Soldani"}, {"authorId": "2069729", "name": "A. Manzalini"}]}, {"paperId": "f2886ad3e20fcda1ba8c171cce65ea240af9f738", "url": "https://www.semanticscholar.org/paper/f2886ad3e20fcda1ba8c171cce65ea240af9f738", "title": "Arrakis: The Operating System is the Control Plane", "venue": "OSDI", "year": 2013, "authors": [{"authorId": "145758767", "name": "Simon Peter"}, {"authorId": "40340635", "name": "Jialin Li"}, {"authorId": "145043404", "name": "Irene Zhang"}, {"authorId": "2883709", "name": "Dan R. K. Ports"}, {"authorId": "2800372", "name": "Doug Woos"}, {"authorId": "144695691", "name": "A. Krishnamurthy"}, {"authorId": "145559915", "name": "T. Anderson"}, {"authorId": "1734886", "name": "Timothy Roscoe"}]}, {"paperId": "8aa6b140b0fe0ae04186b9cc3a42b741852454b2", "url": "https://www.semanticscholar.org/paper/8aa6b140b0fe0ae04186b9cc3a42b741852454b2", "title": "Networked: The New Social Operating System", "venue": "", "year": 2012, "authors": [{"authorId": "2067180", "name": "Lee Rainie"}, {"authorId": "1736470", "name": "B. Wellman"}]}, {"paperId": "3f2c6a4f99130cf09382ebac5c4fe7e297a45725", "url": "https://www.semanticscholar.org/paper/3f2c6a4f99130cf09382ebac5c4fe7e297a45725", "title": "Networked: The New Social Operating System", "venue": "Int. J. E Politics", "year": 2013, "authors": [{"authorId": "39940675", "name": "J. Bishop"}]}, {"paperId": "7b61a5ea0997e7c647b490454b7244d0819a6f3f", "url": "https://www.semanticscholar.org/paper/7b61a5ea0997e7c647b490454b7244d0819a6f3f", "title": "Android and the demise of operating system-based power", "venue": "", "year": 2014, "authors": [{"authorId": "98333140", "name": "Bryan Pon"}, {"authorId": "23270982", "name": "T. Sepp\u00e4l\u00e4"}, {"authorId": "145163215", "name": "M. Kenney"}]}, {"paperId": "29c9afdadf99302b25622e61da39aa7933648e12", "url": "https://www.semanticscholar.org/paper/29c9afdadf99302b25622e61da39aa7933648e12", "title": "Analysis of operating system diversity for intrusion tolerance", "venue": "Softw. Pract. Exp.", "year": 2014, "authors": [{"authorId": "39926240", "name": "Miguel Garc\u00eda"}, {"authorId": "1707743", "name": "A. Bessani"}, {"authorId": "1822802", "name": "Ilir Gashi"}, {"authorId": "1698911", "name": "N. Neves"}, {"authorId": "2480949", "name": "R. Obelheiro"}]}, {"paperId": "686150e2179840ed40a0166cba6c5d507f3aa49c", "url": "https://www.semanticscholar.org/paper/686150e2179840ed40a0166cba6c5d507f3aa49c", "title": "KCoFI: Complete Control-Flow Integrity for Commodity Operating System Kernels", "venue": "2014 IEEE Symposium on Security and Privacy", "year": 2014, "authors": [{"authorId": "144618669", "name": "J. Criswell"}, {"authorId": "1795094", "name": "Nathan Dautenhahn"}, {"authorId": "1720525", "name": "V. Adve"}]}, {"paperId": "52e0ef2a98c924107d74f359c8e585b2267820c8", "url": "https://www.semanticscholar.org/paper/52e0ef2a98c924107d74f359c8e585b2267820c8", "title": "InkTag: secure applications on an untrusted operating system", "venue": "ASPLOS '13", "year": 2013, "authors": [{"authorId": "1735637", "name": "O. S. Hofmann"}, {"authorId": "2109619047", "name": "Sangman Kim"}, {"authorId": "144850815", "name": "Alan M. Dunn"}, {"authorId": "2115304341", "name": "Michael Z. Lee"}, {"authorId": "1683338", "name": "E. Witchel"}]}, {"paperId": "ebc764ad9ce4faf8a499abfd8910c008cd6eac81", "url": "https://www.semanticscholar.org/paper/ebc764ad9ce4faf8a499abfd8910c008cd6eac81", "title": "Unikernels: the rise of the virtual library operating system", "venue": "CACM", "year": 2014, "authors": [{"authorId": "3235603", "name": "Anil Madhavapeddy"}, {"authorId": "40562642", "name": "Dave Scott"}]}, {"paperId": "6b9cafcf9aef5b4c0c338c44a581236d54caddbd", "url": "https://www.semanticscholar.org/paper/6b9cafcf9aef5b4c0c338c44a581236d54caddbd", "title": "An evaluation of 2D SLAM techniques available in Robot Operating System", "venue": "2013 IEEE International Symposium on Safety, Security, and Rescue Robotics (SSRR)", "year": 2013, "authors": [{"authorId": "144325358", "name": "J. M. Santos"}, {"authorId": "144600050", "name": "David Portugal"}, {"authorId": "2111955", "name": "R. Rocha"}]}]}